%YAML 1.1
%TAG !u! tag:unity3d.com,2011:
--- !u!29 &1
OcclusionCullingSettings:
  m_ObjectHideFlags: 0
  serializedVersion: 2
  m_OcclusionBakeSettings:
    smallestOccluder: 5
    smallestHole: 0.25
    backfaceThreshold: 100
  m_SceneGUID: 00000000000000000000000000000000
  m_OcclusionCullingData: {fileID: 0}
--- !u!104 &2
RenderSettings:
  m_ObjectHideFlags: 0
  serializedVersion: 8
  m_Fog: 0
  m_FogColor: {r: 0.5, g: 0.5, b: 0.5, a: 1}
  m_FogMode: 3
  m_FogDensity: 0.01
  m_LinearFogStart: 0
  m_LinearFogEnd: 300
  m_AmbientSkyColor: {r: 0.212, g: 0.227, b: 0.259, a: 1}
  m_AmbientEquatorColor: {r: 0.114, g: 0.125, b: 0.133, a: 1}
  m_AmbientGroundColor: {r: 0.047, g: 0.043, b: 0.035, a: 1}
  m_AmbientIntensity: 2.26
  m_AmbientMode: 0
  m_SubtractiveShadowColor: {r: 0.42, g: 0.478, b: 0.627, a: 1}
  m_SkyboxMaterial: {fileID: 10304, guid: 0000000000000000f000000000000000, type: 0}
  m_HaloStrength: 0.5
  m_FlareStrength: 1
  m_FlareFadeSpeed: 3
  m_HaloTexture: {fileID: 0}
  m_SpotCookie: {fileID: 10001, guid: 0000000000000000e000000000000000, type: 0}
  m_DefaultReflectionMode: 0
  m_DefaultReflectionResolution: 128
  m_ReflectionBounces: 1
  m_ReflectionIntensity: 1
  m_CustomReflection: {fileID: 0}
  m_Sun: {fileID: 0}
  m_IndirectSpecularColor: {r: 0, g: 0, b: 0, a: 1}
--- !u!157 &3
LightmapSettings:
  m_ObjectHideFlags: 0
  serializedVersion: 11
  m_GIWorkflowMode: 0
  m_GISettings:
    serializedVersion: 2
    m_BounceScale: 1
    m_IndirectOutputScale: 1
    m_AlbedoBoost: 1
    m_TemporalCoherenceThreshold: 1
    m_EnvironmentLightingMode: 0
    m_EnableBakedLightmaps: 1
    m_EnableRealtimeLightmaps: 1
  m_LightmapEditorSettings:
    serializedVersion: 9
    m_Resolution: 2
    m_BakeResolution: 40
    m_TextureWidth: 1024
    m_TextureHeight: 1024
    m_AO: 0
    m_AOMaxDistance: 1
    m_CompAOExponent: 0
    m_CompAOExponentDirect: 0
    m_Padding: 2
    m_LightmapParameters: {fileID: 0}
    m_LightmapsBakeMode: 1
    m_TextureCompression: 1
    m_FinalGather: 0
    m_FinalGatherFiltering: 1
    m_FinalGatherRayCount: 1024
    m_ReflectionCompression: 2
    m_MixedBakeMode: 1
    m_BakeBackend: 0
    m_PVRSampling: 1
    m_PVRDirectSampleCount: 32
    m_PVRSampleCount: 500
    m_PVRBounces: 2
    m_PVRFilterTypeDirect: 0
    m_PVRFilterTypeIndirect: 0
    m_PVRFilterTypeAO: 0
    m_PVRFilteringMode: 1
    m_PVRCulling: 1
    m_PVRFilteringGaussRadiusDirect: 1
    m_PVRFilteringGaussRadiusIndirect: 5
    m_PVRFilteringGaussRadiusAO: 2
    m_PVRFilteringAtrousPositionSigmaDirect: 0.5
    m_PVRFilteringAtrousPositionSigmaIndirect: 2
    m_PVRFilteringAtrousPositionSigmaAO: 1
    m_ShowResolutionOverlay: 1
  m_LightingDataAsset: {fileID: 0}
  m_UseShadowmask: 1
--- !u!196 &4
NavMeshSettings:
  serializedVersion: 2
  m_ObjectHideFlags: 0
  m_BuildSettings:
    serializedVersion: 2
    agentTypeID: 0
    agentRadius: 0.5
    agentHeight: 2
    agentSlope: 45
    agentClimb: 0.4
    ledgeDropHeight: 0
    maxJumpAcrossDistance: 0
    minRegionArea: 2
    manualCellSize: 0
    cellSize: 0.16666667
    manualTileSize: 0
    tileSize: 256
    accuratePlacement: 0
    debug:
      m_Flags: 0
  m_NavMeshData: {fileID: 0}
--- !u!1 &18404192
GameObject:
  m_ObjectHideFlags: 0
  m_PrefabParentObject: {fileID: 100002, guid: 4534dec104be08e418b20ba5844a0390, type: 3}
  m_PrefabInternal: {fileID: 1469784107}
  serializedVersion: 5
  m_Component:
  - component: {fileID: 578665024}
  m_Layer: 0
  m_Name: spacefighter
  m_TagString: Untagged
  m_Icon: {fileID: 0}
  m_NavMeshLayer: 0
  m_StaticEditorFlags: 0
  m_IsActive: 1
--- !u!1 &57345964
GameObject:
  m_ObjectHideFlags: 0
  m_PrefabParentObject: {fileID: 100000, guid: 7540f4251c32ab2429bd5860349c40ff, type: 3}
  m_PrefabInternal: {fileID: 2146585230}
  serializedVersion: 5
  m_Component:
  - component: {fileID: 57345965}
  - component: {fileID: 57345967}
  - component: {fileID: 57345966}
  m_Layer: 0
  m_Name: warhead (2)
  m_TagString: Untagged
  m_Icon: {fileID: 0}
  m_NavMeshLayer: 0
  m_StaticEditorFlags: 0
  m_IsActive: 1
--- !u!4 &57345965
Transform:
  m_ObjectHideFlags: 0
  m_PrefabParentObject: {fileID: 400000, guid: 7540f4251c32ab2429bd5860349c40ff, type: 3}
  m_PrefabInternal: {fileID: 2146585230}
  m_GameObject: {fileID: 57345964}
  m_LocalRotation: {x: -0.6975538, y: 0.115839206, z: -0.115839206, w: 0.6975538}
  m_LocalPosition: {x: -2.143999, y: -0.41199994, z: 6.4709997}
  m_LocalScale: {x: 1, y: 1, z: 1}
  m_Children: []
  m_Father: {fileID: 578665024}
  m_RootOrder: 5
  m_LocalEulerAnglesHint: {x: -108.857994, y: -90, z: 89.99999}
--- !u!23 &57345966
MeshRenderer:
  m_ObjectHideFlags: 0
  m_PrefabParentObject: {fileID: 2300000, guid: 7540f4251c32ab2429bd5860349c40ff,
    type: 3}
  m_PrefabInternal: {fileID: 2146585230}
  m_GameObject: {fileID: 57345964}
  m_Enabled: 1
  m_CastShadows: 1
  m_ReceiveShadows: 1
  m_DynamicOccludee: 1
  m_MotionVectors: 1
  m_LightProbeUsage: 1
  m_ReflectionProbeUsage: 1
  m_Materials:
  - {fileID: 2100000, guid: 66f483a7e048c534f88fabe727753605, type: 2}
  m_StaticBatchInfo:
    firstSubMesh: 0
    subMeshCount: 0
  m_StaticBatchRoot: {fileID: 0}
  m_ProbeAnchor: {fileID: 0}
  m_LightProbeVolumeOverride: {fileID: 0}
  m_ScaleInLightmap: 1
  m_PreserveUVs: 0
  m_IgnoreNormalsForChartDetection: 0
  m_ImportantGI: 0
  m_StitchLightmapSeams: 0
  m_SelectedEditorRenderState: 3
  m_MinimumChartSize: 4
  m_AutoUVMaxDistance: 0.5
  m_AutoUVMaxAngle: 89
  m_LightmapParameters: {fileID: 0}
  m_SortingLayerID: 0
  m_SortingLayer: 0
  m_SortingOrder: 0
--- !u!33 &57345967
MeshFilter:
  m_ObjectHideFlags: 0
  m_PrefabParentObject: {fileID: 3300000, guid: 7540f4251c32ab2429bd5860349c40ff,
    type: 3}
  m_PrefabInternal: {fileID: 2146585230}
  m_GameObject: {fileID: 57345964}
  m_Mesh: {fileID: 4300000, guid: 7540f4251c32ab2429bd5860349c40ff, type: 3}
--- !u!1001 &364807187
Prefab:
  m_ObjectHideFlags: 0
  serializedVersion: 2
  m_Modification:
    m_TransformParent: {fileID: 578665024}
    m_Modifications:
    - target: {fileID: 400000, guid: 90aeaa8a39076a8479f8d3366415a53b, type: 3}
      propertyPath: m_LocalPosition.x
      value: -0.6630001
      objectReference: {fileID: 0}
    - target: {fileID: 400000, guid: 90aeaa8a39076a8479f8d3366415a53b, type: 3}
      propertyPath: m_LocalPosition.y
      value: 0.7550001
      objectReference: {fileID: 0}
    - target: {fileID: 400000, guid: 90aeaa8a39076a8479f8d3366415a53b, type: 3}
      propertyPath: m_LocalPosition.z
      value: 2.505
      objectReference: {fileID: 0}
    - target: {fileID: 400000, guid: 90aeaa8a39076a8479f8d3366415a53b, type: 3}
      propertyPath: m_LocalRotation.x
      value: 0.8583833
      objectReference: {fileID: 0}
    - target: {fileID: 400000, guid: 90aeaa8a39076a8479f8d3366415a53b, type: 3}
      propertyPath: m_LocalRotation.y
      value: -0
      objectReference: {fileID: 0}
    - target: {fileID: 400000, guid: 90aeaa8a39076a8479f8d3366415a53b, type: 3}
      propertyPath: m_LocalRotation.z
      value: -0
      objectReference: {fileID: 0}
    - target: {fileID: 400000, guid: 90aeaa8a39076a8479f8d3366415a53b, type: 3}
      propertyPath: m_LocalRotation.w
      value: 0.513009
      objectReference: {fileID: 0}
    - target: {fileID: 400000, guid: 90aeaa8a39076a8479f8d3366415a53b, type: 3}
      propertyPath: m_RootOrder
      value: 3
      objectReference: {fileID: 0}
    - target: {fileID: 400000, guid: 90aeaa8a39076a8479f8d3366415a53b, type: 3}
      propertyPath: m_LocalEulerAnglesHint.x
      value: 118.270996
      objectReference: {fileID: 0}
    - target: {fileID: 400000, guid: 90aeaa8a39076a8479f8d3366415a53b, type: 3}
      propertyPath: m_LocalEulerAnglesHint.y
      value: -0.000015258789
      objectReference: {fileID: 0}
    - target: {fileID: 400000, guid: 90aeaa8a39076a8479f8d3366415a53b, type: 3}
      propertyPath: m_LocalEulerAnglesHint.z
      value: -0.000015258789
      objectReference: {fileID: 0}
    - target: {fileID: 100000, guid: 90aeaa8a39076a8479f8d3366415a53b, type: 3}
      propertyPath: m_Name
      value: helium3 (1)
      objectReference: {fileID: 0}
    - target: {fileID: 400000, guid: 90aeaa8a39076a8479f8d3366415a53b, type: 3}
      propertyPath: m_LocalScale.y
      value: 0.010000007
      objectReference: {fileID: 0}
    - target: {fileID: 400000, guid: 90aeaa8a39076a8479f8d3366415a53b, type: 3}
      propertyPath: m_LocalScale.z
      value: 0.010000007
      objectReference: {fileID: 0}
    m_RemovedComponents: []
  m_ParentPrefab: {fileID: 100100000, guid: 90aeaa8a39076a8479f8d3366415a53b, type: 3}
  m_RootGameObject: {fileID: 438012068}
  m_IsPrefabParent: 0
--- !u!1 &438012068
GameObject:
  m_ObjectHideFlags: 0
  m_PrefabParentObject: {fileID: 100000, guid: 90aeaa8a39076a8479f8d3366415a53b, type: 3}
  m_PrefabInternal: {fileID: 364807187}
  serializedVersion: 5
  m_Component:
  - component: {fileID: 438012069}
  - component: {fileID: 438012071}
  - component: {fileID: 438012070}
  m_Layer: 0
  m_Name: helium3 (1)
  m_TagString: Untagged
  m_Icon: {fileID: 0}
  m_NavMeshLayer: 0
  m_StaticEditorFlags: 0
  m_IsActive: 1
--- !u!4 &438012069
Transform:
  m_ObjectHideFlags: 0
  m_PrefabParentObject: {fileID: 400000, guid: 90aeaa8a39076a8479f8d3366415a53b, type: 3}
  m_PrefabInternal: {fileID: 364807187}
  m_GameObject: {fileID: 438012068}
  m_LocalRotation: {x: 0.8583833, y: -0, z: -0, w: 0.513009}
  m_LocalPosition: {x: -0.6630001, y: 0.7550001, z: 2.505}
  m_LocalScale: {x: 0.01, y: 0.010000007, z: 0.010000007}
  m_Children: []
  m_Father: {fileID: 578665024}
  m_RootOrder: 3
  m_LocalEulerAnglesHint: {x: 118.270996, y: -0.000015258789, z: -0.000015258789}
--- !u!23 &438012070
MeshRenderer:
  m_ObjectHideFlags: 0
  m_PrefabParentObject: {fileID: 2300000, guid: 90aeaa8a39076a8479f8d3366415a53b,
    type: 3}
  m_PrefabInternal: {fileID: 364807187}
  m_GameObject: {fileID: 438012068}
  m_Enabled: 1
  m_CastShadows: 1
  m_ReceiveShadows: 1
  m_DynamicOccludee: 1
  m_MotionVectors: 1
  m_LightProbeUsage: 1
  m_ReflectionProbeUsage: 1
  m_Materials:
  - {fileID: 2100000, guid: e279c30a1e087ea4d86c41786b508b87, type: 2}
  m_StaticBatchInfo:
    firstSubMesh: 0
    subMeshCount: 0
  m_StaticBatchRoot: {fileID: 0}
  m_ProbeAnchor: {fileID: 0}
  m_LightProbeVolumeOverride: {fileID: 0}
  m_ScaleInLightmap: 1
  m_PreserveUVs: 0
  m_IgnoreNormalsForChartDetection: 0
  m_ImportantGI: 0
  m_StitchLightmapSeams: 0
  m_SelectedEditorRenderState: 3
  m_MinimumChartSize: 4
  m_AutoUVMaxDistance: 0.5
  m_AutoUVMaxAngle: 89
  m_LightmapParameters: {fileID: 0}
  m_SortingLayerID: 0
  m_SortingLayer: 0
  m_SortingOrder: 0
--- !u!33 &438012071
MeshFilter:
  m_ObjectHideFlags: 0
  m_PrefabParentObject: {fileID: 3300000, guid: 90aeaa8a39076a8479f8d3366415a53b,
    type: 3}
  m_PrefabInternal: {fileID: 364807187}
  m_GameObject: {fileID: 438012068}
  m_Mesh: {fileID: 4300000, guid: 90aeaa8a39076a8479f8d3366415a53b, type: 3}
--- !u!4 &578665024
Transform:
  m_ObjectHideFlags: 0
  m_PrefabParentObject: {fileID: 400002, guid: 4534dec104be08e418b20ba5844a0390, type: 3}
  m_PrefabInternal: {fileID: 1469784107}
  m_GameObject: {fileID: 18404192}
  m_LocalRotation: {x: 0, y: -0, z: -0, w: 1}
  m_LocalPosition: {x: 24.316, y: 2.6, z: -10.981}
  m_LocalScale: {x: 1, y: 1, z: 1}
  m_Children:
  - {fileID: 1566516415}
  - {fileID: 2118011623}
  - {fileID: 632516508}
  - {fileID: 438012069}
  - {fileID: 1566557117}
  - {fileID: 57345965}
  - {fileID: 1665895312}
  m_Father: {fileID: 0}
  m_RootOrder: 0
  m_LocalEulerAnglesHint: {x: 0, y: 0, z: 0}
--- !u!1001 &593593373
Prefab:
  m_ObjectHideFlags: 0
  serializedVersion: 2
  m_Modification:
    m_TransformParent: {fileID: 578665024}
    m_Modifications:
    - target: {fileID: 400000, guid: 7540f4251c32ab2429bd5860349c40ff, type: 3}
      propertyPath: m_LocalPosition.x
      value: -2.3110008
      objectReference: {fileID: 0}
    - target: {fileID: 400000, guid: 7540f4251c32ab2429bd5860349c40ff, type: 3}
      propertyPath: m_LocalPosition.y
      value: 0.049000025
      objectReference: {fileID: 0}
    - target: {fileID: 400000, guid: 7540f4251c32ab2429bd5860349c40ff, type: 3}
      propertyPath: m_LocalPosition.z
      value: 6.4709997
      objectReference: {fileID: 0}
    - target: {fileID: 400000, guid: 7540f4251c32ab2429bd5860349c40ff, type: 3}
      propertyPath: m_LocalRotation.x
      value: -0.6975538
      objectReference: {fileID: 0}
    - target: {fileID: 400000, guid: 7540f4251c32ab2429bd5860349c40ff, type: 3}
      propertyPath: m_LocalRotation.y
      value: 0.115839206
      objectReference: {fileID: 0}
    - target: {fileID: 400000, guid: 7540f4251c32ab2429bd5860349c40ff, type: 3}
      propertyPath: m_LocalRotation.z
      value: -0.115839206
      objectReference: {fileID: 0}
    - target: {fileID: 400000, guid: 7540f4251c32ab2429bd5860349c40ff, type: 3}
      propertyPath: m_LocalRotation.w
      value: 0.6975538
      objectReference: {fileID: 0}
    - target: {fileID: 400000, guid: 7540f4251c32ab2429bd5860349c40ff, type: 3}
      propertyPath: m_RootOrder
      value: 6
      objectReference: {fileID: 0}
    - target: {fileID: 400000, guid: 7540f4251c32ab2429bd5860349c40ff, type: 3}
      propertyPath: m_LocalEulerAnglesHint.y
      value: -90
      objectReference: {fileID: 0}
    - target: {fileID: 400000, guid: 7540f4251c32ab2429bd5860349c40ff, type: 3}
      propertyPath: m_LocalEulerAnglesHint.x
      value: -108.857994
      objectReference: {fileID: 0}
    - target: {fileID: 100000, guid: 7540f4251c32ab2429bd5860349c40ff, type: 3}
      propertyPath: m_Name
      value: warhead (3)
      objectReference: {fileID: 0}
    - target: {fileID: 400000, guid: 7540f4251c32ab2429bd5860349c40ff, type: 3}
      propertyPath: m_LocalEulerAnglesHint.z
      value: 89.99999
      objectReference: {fileID: 0}
    - target: {fileID: 400000, guid: 7540f4251c32ab2429bd5860349c40ff, type: 3}
      propertyPath: m_LocalScale.y
      value: 1
      objectReference: {fileID: 0}
    - target: {fileID: 400000, guid: 7540f4251c32ab2429bd5860349c40ff, type: 3}
      propertyPath: m_LocalScale.z
      value: 1
      objectReference: {fileID: 0}
    m_RemovedComponents: []
  m_ParentPrefab: {fileID: 100100000, guid: 7540f4251c32ab2429bd5860349c40ff, type: 3}
  m_RootGameObject: {fileID: 1665895311}
  m_IsPrefabParent: 0
--- !u!1 &632516507
GameObject:
  m_ObjectHideFlags: 0
  m_PrefabParentObject: {fileID: 100000, guid: 90aeaa8a39076a8479f8d3366415a53b, type: 3}
  m_PrefabInternal: {fileID: 979410097}
  serializedVersion: 5
  m_Component:
  - component: {fileID: 632516508}
  - component: {fileID: 632516510}
  - component: {fileID: 632516509}
  m_Layer: 0
  m_Name: helium3
  m_TagString: Untagged
  m_Icon: {fileID: 0}
  m_NavMeshLayer: 0
  m_StaticEditorFlags: 0
  m_IsActive: 1
--- !u!4 &632516508
Transform:
  m_ObjectHideFlags: 0
  m_PrefabParentObject: {fileID: 400000, guid: 90aeaa8a39076a8479f8d3366415a53b, type: 3}
  m_PrefabInternal: {fileID: 979410097}
  m_GameObject: {fileID: 632516507}
  m_LocalRotation: {x: 0.8583833, y: -0, z: -0, w: 0.513009}
  m_LocalPosition: {x: 0.66200066, y: 0.7670002, z: 2.505}
  m_LocalScale: {x: 0.01, y: 0.010000007, z: 0.010000007}
  m_Children: []
  m_Father: {fileID: 578665024}
  m_RootOrder: 2
  m_LocalEulerAnglesHint: {x: 118.270996, y: -0.000015258789, z: -0.000015258789}
--- !u!23 &632516509
MeshRenderer:
  m_ObjectHideFlags: 0
  m_PrefabParentObject: {fileID: 2300000, guid: 90aeaa8a39076a8479f8d3366415a53b,
    type: 3}
  m_PrefabInternal: {fileID: 979410097}
  m_GameObject: {fileID: 632516507}
  m_Enabled: 1
  m_CastShadows: 1
  m_ReceiveShadows: 1
  m_DynamicOccludee: 1
  m_MotionVectors: 1
  m_LightProbeUsage: 1
  m_ReflectionProbeUsage: 1
  m_Materials:
  - {fileID: 2100000, guid: e279c30a1e087ea4d86c41786b508b87, type: 2}
  m_StaticBatchInfo:
    firstSubMesh: 0
    subMeshCount: 0
  m_StaticBatchRoot: {fileID: 0}
  m_ProbeAnchor: {fileID: 0}
  m_LightProbeVolumeOverride: {fileID: 0}
  m_ScaleInLightmap: 1
  m_PreserveUVs: 0
  m_IgnoreNormalsForChartDetection: 0
  m_ImportantGI: 0
  m_StitchLightmapSeams: 0
  m_SelectedEditorRenderState: 3
  m_MinimumChartSize: 4
  m_AutoUVMaxDistance: 0.5
  m_AutoUVMaxAngle: 89
  m_LightmapParameters: {fileID: 0}
  m_SortingLayerID: 0
  m_SortingLayer: 0
  m_SortingOrder: 0
--- !u!33 &632516510
MeshFilter:
  m_ObjectHideFlags: 0
  m_PrefabParentObject: {fileID: 3300000, guid: 90aeaa8a39076a8479f8d3366415a53b,
    type: 3}
  m_PrefabInternal: {fileID: 979410097}
  m_GameObject: {fileID: 632516507}
  m_Mesh: {fileID: 4300000, guid: 90aeaa8a39076a8479f8d3366415a53b, type: 3}
--- !u!1001 &881341300
Prefab:
  m_ObjectHideFlags: 0
  serializedVersion: 2
  m_Modification:
    m_TransformParent: {fileID: 578665024}
    m_Modifications:
    - target: {fileID: 400000, guid: 7540f4251c32ab2429bd5860349c40ff, type: 3}
      propertyPath: m_LocalPosition.x
      value: 2.1380005
      objectReference: {fileID: 0}
    - target: {fileID: 400000, guid: 7540f4251c32ab2429bd5860349c40ff, type: 3}
      propertyPath: m_LocalPosition.y
      value: -0.45299983
      objectReference: {fileID: 0}
    - target: {fileID: 400000, guid: 7540f4251c32ab2429bd5860349c40ff, type: 3}
      propertyPath: m_LocalPosition.z
      value: 6.4709997
      objectReference: {fileID: 0}
    - target: {fileID: 400000, guid: 7540f4251c32ab2429bd5860349c40ff, type: 3}
      propertyPath: m_LocalRotation.x
      value: -0.7071068
      objectReference: {fileID: 0}
    - target: {fileID: 400000, guid: 7540f4251c32ab2429bd5860349c40ff, type: 3}
      propertyPath: m_LocalRotation.y
      value: -0
      objectReference: {fileID: 0}
    - target: {fileID: 400000, guid: 7540f4251c32ab2429bd5860349c40ff, type: 3}
      propertyPath: m_LocalRotation.z
      value: -0
      objectReference: {fileID: 0}
    - target: {fileID: 400000, guid: 7540f4251c32ab2429bd5860349c40ff, type: 3}
      propertyPath: m_LocalRotation.w
      value: 0.7071068
      objectReference: {fileID: 0}
    - target: {fileID: 400000, guid: 7540f4251c32ab2429bd5860349c40ff, type: 3}
      propertyPath: m_RootOrder
      value: 4
      objectReference: {fileID: 0}
    - target: {fileID: 400000, guid: 7540f4251c32ab2429bd5860349c40ff, type: 3}
      propertyPath: m_LocalEulerAnglesHint.y
      value: 0
      objectReference: {fileID: 0}
    - target: {fileID: 400000, guid: 7540f4251c32ab2429bd5860349c40ff, type: 3}
      propertyPath: m_LocalEulerAnglesHint.x
      value: -90
      objectReference: {fileID: 0}
    - target: {fileID: 100000, guid: 7540f4251c32ab2429bd5860349c40ff, type: 3}
      propertyPath: m_Name
      value: warhead (1)
      objectReference: {fileID: 0}
    - target: {fileID: 400000, guid: 7540f4251c32ab2429bd5860349c40ff, type: 3}
      propertyPath: m_LocalScale.y
      value: 1
      objectReference: {fileID: 0}
    - target: {fileID: 400000, guid: 7540f4251c32ab2429bd5860349c40ff, type: 3}
      propertyPath: m_LocalScale.z
      value: 1
      objectReference: {fileID: 0}
    m_RemovedComponents: []
  m_ParentPrefab: {fileID: 100100000, guid: 7540f4251c32ab2429bd5860349c40ff, type: 3}
  m_RootGameObject: {fileID: 1566557116}
  m_IsPrefabParent: 0
--- !u!1001 &978365397
Prefab:
  m_ObjectHideFlags: 0
  serializedVersion: 2
  m_Modification:
    m_TransformParent: {fileID: 578665024}
    m_Modifications:
    - target: {fileID: 400000, guid: 7540f4251c32ab2429bd5860349c40ff, type: 3}
      propertyPath: m_LocalPosition.x
      value: 2.3099995
      objectReference: {fileID: 0}
    - target: {fileID: 400000, guid: 7540f4251c32ab2429bd5860349c40ff, type: 3}
      propertyPath: m_LocalPosition.y
      value: 0.009000063
      objectReference: {fileID: 0}
    - target: {fileID: 400000, guid: 7540f4251c32ab2429bd5860349c40ff, type: 3}
      propertyPath: m_LocalPosition.z
      value: 6.4709997
      objectReference: {fileID: 0}
    - target: {fileID: 400000, guid: 7540f4251c32ab2429bd5860349c40ff, type: 3}
      propertyPath: m_LocalRotation.x
      value: -0.7071068
      objectReference: {fileID: 0}
    - target: {fileID: 400000, guid: 7540f4251c32ab2429bd5860349c40ff, type: 3}
      propertyPath: m_LocalRotation.y
      value: -0
      objectReference: {fileID: 0}
    - target: {fileID: 400000, guid: 7540f4251c32ab2429bd5860349c40ff, type: 3}
      propertyPath: m_LocalRotation.z
      value: -0
      objectReference: {fileID: 0}
    - target: {fileID: 400000, guid: 7540f4251c32ab2429bd5860349c40ff, type: 3}
      propertyPath: m_LocalRotation.w
      value: 0.7071068
      objectReference: {fileID: 0}
    - target: {fileID: 400000, guid: 7540f4251c32ab2429bd5860349c40ff, type: 3}
      propertyPath: m_RootOrder
      value: 1
      objectReference: {fileID: 0}
    - target: {fileID: 400000, guid: 7540f4251c32ab2429bd5860349c40ff, type: 3}
      propertyPath: m_LocalEulerAnglesHint.y
      value: 0
      objectReference: {fileID: 0}
    - target: {fileID: 400000, guid: 7540f4251c32ab2429bd5860349c40ff, type: 3}
      propertyPath: m_LocalEulerAnglesHint.x
      value: -90
      objectReference: {fileID: 0}
    - target: {fileID: 400000, guid: 7540f4251c32ab2429bd5860349c40ff, type: 3}
      propertyPath: m_LocalScale.y
      value: 1
      objectReference: {fileID: 0}
    - target: {fileID: 400000, guid: 7540f4251c32ab2429bd5860349c40ff, type: 3}
      propertyPath: m_LocalScale.z
      value: 1
      objectReference: {fileID: 0}
    m_RemovedComponents: []
  m_ParentPrefab: {fileID: 100100000, guid: 7540f4251c32ab2429bd5860349c40ff, type: 3}
  m_RootGameObject: {fileID: 2118011622}
  m_IsPrefabParent: 0
--- !u!1001 &979410097
Prefab:
  m_ObjectHideFlags: 0
  serializedVersion: 2
  m_Modification:
    m_TransformParent: {fileID: 578665024}
    m_Modifications:
    - target: {fileID: 400000, guid: 90aeaa8a39076a8479f8d3366415a53b, type: 3}
      propertyPath: m_LocalPosition.x
      value: 0.66200066
      objectReference: {fileID: 0}
    - target: {fileID: 400000, guid: 90aeaa8a39076a8479f8d3366415a53b, type: 3}
      propertyPath: m_LocalPosition.y
      value: 0.7670002
      objectReference: {fileID: 0}
    - target: {fileID: 400000, guid: 90aeaa8a39076a8479f8d3366415a53b, type: 3}
      propertyPath: m_LocalPosition.z
      value: 2.505
      objectReference: {fileID: 0}
    - target: {fileID: 400000, guid: 90aeaa8a39076a8479f8d3366415a53b, type: 3}
      propertyPath: m_LocalRotation.x
      value: 0.8583833
      objectReference: {fileID: 0}
    - target: {fileID: 400000, guid: 90aeaa8a39076a8479f8d3366415a53b, type: 3}
      propertyPath: m_LocalRotation.y
      value: -0
      objectReference: {fileID: 0}
    - target: {fileID: 400000, guid: 90aeaa8a39076a8479f8d3366415a53b, type: 3}
      propertyPath: m_LocalRotation.z
      value: -0
      objectReference: {fileID: 0}
    - target: {fileID: 400000, guid: 90aeaa8a39076a8479f8d3366415a53b, type: 3}
      propertyPath: m_LocalRotation.w
      value: 0.513009
      objectReference: {fileID: 0}
    - target: {fileID: 400000, guid: 90aeaa8a39076a8479f8d3366415a53b, type: 3}
      propertyPath: m_RootOrder
      value: 2
      objectReference: {fileID: 0}
    - target: {fileID: 400000, guid: 90aeaa8a39076a8479f8d3366415a53b, type: 3}
      propertyPath: m_LocalEulerAnglesHint.x
      value: 118.270996
      objectReference: {fileID: 0}
    - target: {fileID: 400000, guid: 90aeaa8a39076a8479f8d3366415a53b, type: 3}
      propertyPath: m_LocalEulerAnglesHint.y
      value: -0.000015258789
      objectReference: {fileID: 0}
    - target: {fileID: 400000, guid: 90aeaa8a39076a8479f8d3366415a53b, type: 3}
      propertyPath: m_LocalEulerAnglesHint.z
      value: -0.000015258789
      objectReference: {fileID: 0}
    - target: {fileID: 400000, guid: 90aeaa8a39076a8479f8d3366415a53b, type: 3}
      propertyPath: m_LocalScale.y
      value: 0.010000007
      objectReference: {fileID: 0}
    - target: {fileID: 400000, guid: 90aeaa8a39076a8479f8d3366415a53b, type: 3}
      propertyPath: m_LocalScale.z
      value: 0.010000007
      objectReference: {fileID: 0}
    m_RemovedComponents: []
  m_ParentPrefab: {fileID: 100100000, guid: 90aeaa8a39076a8479f8d3366415a53b, type: 3}
  m_RootGameObject: {fileID: 632516507}
  m_IsPrefabParent: 0
--- !u!1 &1347499037
GameObject:
  m_ObjectHideFlags: 0
  m_PrefabParentObject: {fileID: 0}
  m_PrefabInternal: {fileID: 0}
  serializedVersion: 5
  m_Component:
  - component: {fileID: 1347499039}
  - component: {fileID: 1347499038}
  m_Layer: 0
  m_Name: Directional light
  m_TagString: Untagged
  m_Icon: {fileID: 0}
  m_NavMeshLayer: 0
  m_StaticEditorFlags: 0
  m_IsActive: 1
--- !u!108 &1347499038
Light:
  m_ObjectHideFlags: 0
  m_PrefabParentObject: {fileID: 0}
  m_PrefabInternal: {fileID: 0}
  m_GameObject: {fileID: 1347499037}
  m_Enabled: 1
  serializedVersion: 8
  m_Type: 1
  m_Color: {r: 1, g: 1, b: 1, a: 1}
  m_Intensity: 1
  m_Range: 10
  m_SpotAngle: 30
  m_CookieSize: 10
  m_Shadows:
    m_Type: 0
    m_Resolution: -1
    m_CustomResolution: -1
    m_Strength: 1
    m_Bias: 0.05
    m_NormalBias: 0.4
    m_NearPlane: 0.2
  m_Cookie: {fileID: 0}
  m_DrawHalo: 0
  m_Flare: {fileID: 0}
  m_RenderMode: 0
  m_CullingMask:
    serializedVersion: 2
    m_Bits: 4294967295
  m_Lightmapping: 4
  m_AreaSize: {x: 1, y: 1}
  m_BounceIntensity: 1
  m_ColorTemperature: 6570
  m_UseColorTemperature: 0
  m_ShadowRadius: 0
  m_ShadowAngle: 0
--- !u!4 &1347499039
Transform:
  m_ObjectHideFlags: 0
  m_PrefabParentObject: {fileID: 0}
  m_PrefabInternal: {fileID: 0}
  m_GameObject: {fileID: 1347499037}
  m_LocalRotation: {x: 0.40821788, y: -0.23456968, z: 0.10938163, w: 0.8754261}
  m_LocalPosition: {x: -10.9, y: -19.1, z: -132.2}
  m_LocalScale: {x: 1, y: 1, z: 1}
  m_Children: []
  m_Father: {fileID: 0}
  m_RootOrder: 2
  m_LocalEulerAnglesHint: {x: 50, y: -30, z: 0}
--- !u!1001 &1469784107
Prefab:
  m_ObjectHideFlags: 0
  serializedVersion: 2
  m_Modification:
    m_TransformParent: {fileID: 0}
    m_Modifications:
    - target: {fileID: 400002, guid: 4534dec104be08e418b20ba5844a0390, type: 3}
      propertyPath: m_LocalPosition.x
      value: 24.316
      objectReference: {fileID: 0}
    - target: {fileID: 400002, guid: 4534dec104be08e418b20ba5844a0390, type: 3}
      propertyPath: m_LocalPosition.y
      value: 2.6
      objectReference: {fileID: 0}
    - target: {fileID: 400002, guid: 4534dec104be08e418b20ba5844a0390, type: 3}
      propertyPath: m_LocalPosition.z
      value: -10.981
      objectReference: {fileID: 0}
    - target: {fileID: 400002, guid: 4534dec104be08e418b20ba5844a0390, type: 3}
      propertyPath: m_LocalRotation.x
      value: 0
      objectReference: {fileID: 0}
    - target: {fileID: 400002, guid: 4534dec104be08e418b20ba5844a0390, type: 3}
      propertyPath: m_LocalRotation.y
      value: -0
      objectReference: {fileID: 0}
    - target: {fileID: 400002, guid: 4534dec104be08e418b20ba5844a0390, type: 3}
      propertyPath: m_LocalRotation.z
      value: -0
      objectReference: {fileID: 0}
    - target: {fileID: 400002, guid: 4534dec104be08e418b20ba5844a0390, type: 3}
      propertyPath: m_LocalRotation.w
      value: 1
      objectReference: {fileID: 0}
    - target: {fileID: 400002, guid: 4534dec104be08e418b20ba5844a0390, type: 3}
      propertyPath: m_RootOrder
      value: 0
      objectReference: {fileID: 0}
    - target: {fileID: 100002, guid: 4534dec104be08e418b20ba5844a0390, type: 3}
      propertyPath: m_Name
      value: spacefighter
      objectReference: {fileID: 0}
    m_RemovedComponents: []
  m_ParentPrefab: {fileID: 100100000, guid: 4534dec104be08e418b20ba5844a0390, type: 3}
  m_RootGameObject: {fileID: 18404192}
  m_IsPrefabParent: 0
--- !u!1 &1566516414
GameObject:
  m_ObjectHideFlags: 0
  m_PrefabParentObject: {fileID: 100000, guid: 4534dec104be08e418b20ba5844a0390, type: 3}
  m_PrefabInternal: {fileID: 1469784107}
  serializedVersion: 5
  m_Component:
  - component: {fileID: 1566516415}
  - component: {fileID: 1566516417}
  - component: {fileID: 1566516416}
  m_Layer: 0
  m_Name: default
  m_TagString: Untagged
  m_Icon: {fileID: 0}
  m_NavMeshLayer: 0
  m_StaticEditorFlags: 0
  m_IsActive: 1
--- !u!4 &1566516415
Transform:
  m_ObjectHideFlags: 0
  m_PrefabParentObject: {fileID: 400000, guid: 4534dec104be08e418b20ba5844a0390, type: 3}
  m_PrefabInternal: {fileID: 1469784107}
  m_GameObject: {fileID: 1566516414}
  m_LocalRotation: {x: 0, y: -0, z: -0, w: 1}
  m_LocalPosition: {x: -0, y: 0, z: 0}
  m_LocalScale: {x: 1, y: 1, z: 1}
  m_Children: []
  m_Father: {fileID: 578665024}
  m_RootOrder: 0
  m_LocalEulerAnglesHint: {x: 0, y: 0, z: 0}
--- !u!23 &1566516416
MeshRenderer:
  m_ObjectHideFlags: 0
  m_PrefabParentObject: {fileID: 2300000, guid: 4534dec104be08e418b20ba5844a0390,
    type: 3}
  m_PrefabInternal: {fileID: 1469784107}
  m_GameObject: {fileID: 1566516414}
  m_Enabled: 1
  m_CastShadows: 1
  m_ReceiveShadows: 1
  m_DynamicOccludee: 1
  m_MotionVectors: 1
  m_LightProbeUsage: 1
  m_ReflectionProbeUsage: 1
  m_Materials:
  - {fileID: 2100000, guid: 9dc74f0ca5de04c43a429ede8bd29a42, type: 2}
  - {fileID: 2100000, guid: 6edbf735fdad0914b8f94b848c3e47e9, type: 2}
  - {fileID: 2100000, guid: aa0a86833ffb9434084a0dcaf9caab4a, type: 2}
  - {fileID: 2100000, guid: 4aeb4f9daf524ac4ead73a080ff83792, type: 2}
  m_StaticBatchInfo:
    firstSubMesh: 0
    subMeshCount: 0
  m_StaticBatchRoot: {fileID: 0}
  m_ProbeAnchor: {fileID: 0}
  m_LightProbeVolumeOverride: {fileID: 0}
  m_ScaleInLightmap: 1
  m_PreserveUVs: 0
  m_IgnoreNormalsForChartDetection: 0
  m_ImportantGI: 0
  m_StitchLightmapSeams: 0
  m_SelectedEditorRenderState: 3
  m_MinimumChartSize: 4
  m_AutoUVMaxDistance: 0.5
  m_AutoUVMaxAngle: 89
  m_LightmapParameters: {fileID: 0}
  m_SortingLayerID: 0
  m_SortingLayer: 0
  m_SortingOrder: 0
--- !u!33 &1566516417
MeshFilter:
  m_ObjectHideFlags: 0
  m_PrefabParentObject: {fileID: 3300000, guid: 4534dec104be08e418b20ba5844a0390,
    type: 3}
  m_PrefabInternal: {fileID: 1469784107}
  m_GameObject: {fileID: 1566516414}
  m_Mesh: {fileID: 4300000, guid: 4534dec104be08e418b20ba5844a0390, type: 3}
--- !u!1 &1566557116
GameObject:
  m_ObjectHideFlags: 0
  m_PrefabParentObject: {fileID: 100000, guid: 7540f4251c32ab2429bd5860349c40ff, type: 3}
  m_PrefabInternal: {fileID: 881341300}
  serializedVersion: 5
  m_Component:
  - component: {fileID: 1566557117}
  - component: {fileID: 1566557119}
  - component: {fileID: 1566557118}
  m_Layer: 0
  m_Name: warhead (1)
  m_TagString: Untagged
  m_Icon: {fileID: 0}
  m_NavMeshLayer: 0
  m_StaticEditorFlags: 0
  m_IsActive: 1
--- !u!4 &1566557117
Transform:
  m_ObjectHideFlags: 0
  m_PrefabParentObject: {fileID: 400000, guid: 7540f4251c32ab2429bd5860349c40ff, type: 3}
  m_PrefabInternal: {fileID: 881341300}
  m_GameObject: {fileID: 1566557116}
  m_LocalRotation: {x: -0.7071068, y: -0, z: -0, w: 0.7071068}
  m_LocalPosition: {x: 2.1380005, y: -0.45299983, z: 6.4709997}
  m_LocalScale: {x: 1, y: 1, z: 1}
  m_Children: []
  m_Father: {fileID: 578665024}
  m_RootOrder: 4
  m_LocalEulerAnglesHint: {x: -90, y: 0, z: 0}
--- !u!23 &1566557118
MeshRenderer:
  m_ObjectHideFlags: 0
  m_PrefabParentObject: {fileID: 2300000, guid: 7540f4251c32ab2429bd5860349c40ff,
    type: 3}
  m_PrefabInternal: {fileID: 881341300}
  m_GameObject: {fileID: 1566557116}
  m_Enabled: 1
  m_CastShadows: 1
  m_ReceiveShadows: 1
  m_DynamicOccludee: 1
  m_MotionVectors: 1
  m_LightProbeUsage: 1
  m_ReflectionProbeUsage: 1
  m_Materials:
  - {fileID: 2100000, guid: 66f483a7e048c534f88fabe727753605, type: 2}
  m_StaticBatchInfo:
    firstSubMesh: 0
    subMeshCount: 0
  m_StaticBatchRoot: {fileID: 0}
  m_ProbeAnchor: {fileID: 0}
  m_LightProbeVolumeOverride: {fileID: 0}
  m_ScaleInLightmap: 1
  m_PreserveUVs: 0
  m_IgnoreNormalsForChartDetection: 0
  m_ImportantGI: 0
  m_StitchLightmapSeams: 0
  m_SelectedEditorRenderState: 3
  m_MinimumChartSize: 4
  m_AutoUVMaxDistance: 0.5
  m_AutoUVMaxAngle: 89
  m_LightmapParameters: {fileID: 0}
  m_SortingLayerID: 0
  m_SortingLayer: 0
  m_SortingOrder: 0
--- !u!33 &1566557119
MeshFilter:
  m_ObjectHideFlags: 0
  m_PrefabParentObject: {fileID: 3300000, guid: 7540f4251c32ab2429bd5860349c40ff,
    type: 3}
  m_PrefabInternal: {fileID: 881341300}
  m_GameObject: {fileID: 1566557116}
  m_Mesh: {fileID: 4300000, guid: 7540f4251c32ab2429bd5860349c40ff, type: 3}
--- !u!1 &1614528542
GameObject:
  m_ObjectHideFlags: 0
  m_PrefabParentObject: {fileID: 0}
  m_PrefabInternal: {fileID: 0}
  serializedVersion: 5
  m_Component:
  - component: {fileID: 1614528547}
  - component: {fileID: 1614528546}
  - component: {fileID: 1614528545}
  - component: {fileID: 1614528544}
  - component: {fileID: 1614528543}
  m_Layer: 0
  m_Name: Camera
  m_TagString: Untagged
  m_Icon: {fileID: 0}
  m_NavMeshLayer: 0
  m_StaticEditorFlags: 0
  m_IsActive: 1
--- !u!81 &1614528543
AudioListener:
  m_ObjectHideFlags: 0
  m_PrefabParentObject: {fileID: 0}
  m_PrefabInternal: {fileID: 0}
  m_GameObject: {fileID: 1614528542}
  m_Enabled: 1
--- !u!92 &1614528544
Behaviour:
  m_ObjectHideFlags: 0
  m_PrefabParentObject: {fileID: 0}
  m_PrefabInternal: {fileID: 0}
  m_GameObject: {fileID: 1614528542}
  m_Enabled: 1
--- !u!124 &1614528545
Behaviour:
  m_ObjectHideFlags: 0
  m_PrefabParentObject: {fileID: 0}
  m_PrefabInternal: {fileID: 0}
  m_GameObject: {fileID: 1614528542}
  m_Enabled: 1
--- !u!20 &1614528546
Camera:
  m_ObjectHideFlags: 0
  m_PrefabParentObject: {fileID: 0}
  m_PrefabInternal: {fileID: 0}
  m_GameObject: {fileID: 1614528542}
  m_Enabled: 1
  serializedVersion: 2
  m_ClearFlags: 1
  m_BackGroundColor: {r: 0.19215687, g: 0.3019608, b: 0.4745098, a: 0}
  m_NormalizedViewPortRect:
    serializedVersion: 2
    x: 0
    y: 0
    width: 1
    height: 1
  near clip plane: 0.3
  far clip plane: 1000
  field of view: 35
  orthographic: 0
  orthographic size: 5
  m_Depth: 0
  m_CullingMask:
    serializedVersion: 2
    m_Bits: 4294967295
  m_RenderingPath: -1
  m_TargetTexture: {fileID: 0}
  m_TargetDisplay: 0
  m_TargetEye: 3
  m_HDR: 1
  m_AllowMSAA: 1
  m_AllowDynamicResolution: 0
  m_ForceIntoRT: 0
  m_OcclusionCulling: 1
  m_StereoConvergence: 10
  m_StereoSeparation: 0.022
--- !u!4 &1614528547
Transform:
  m_ObjectHideFlags: 0
  m_PrefabParentObject: {fileID: 0}
  m_PrefabInternal: {fileID: 0}
  m_GameObject: {fileID: 1614528542}
  m_LocalRotation: {x: 0.024160065, y: -0.93416625, z: 0.052660793, w: 0.3521031}
  m_LocalPosition: {x: 38.47, y: 6.76, z: 8.51}
  m_LocalScale: {x: 1, y: 1, z: 1}
  m_Children: []
  m_Father: {fileID: 0}
  m_RootOrder: 1
  m_LocalEulerAnglesHint: {x: 6.6270003, y: -138.722, z: -0.46500003}
--- !u!1 &1665895311
GameObject:
  m_ObjectHideFlags: 0
  m_PrefabParentObject: {fileID: 100000, guid: 7540f4251c32ab2429bd5860349c40ff, type: 3}
  m_PrefabInternal: {fileID: 593593373}
  serializedVersion: 5
  m_Component:
  - component: {fileID: 1665895312}
  - component: {fileID: 1665895314}
  - component: {fileID: 1665895313}
  m_Layer: 0
  m_Name: warhead (3)
  m_TagString: Untagged
  m_Icon: {fileID: 0}
  m_NavMeshLayer: 0
  m_StaticEditorFlags: 0
  m_IsActive: 1
--- !u!4 &1665895312
Transform:
  m_ObjectHideFlags: 0
  m_PrefabParentObject: {fileID: 400000, guid: 7540f4251c32ab2429bd5860349c40ff, type: 3}
  m_PrefabInternal: {fileID: 593593373}
  m_GameObject: {fileID: 1665895311}
  m_LocalRotation: {x: -0.6975538, y: 0.115839206, z: -0.115839206, w: 0.6975538}
  m_LocalPosition: {x: -2.3110008, y: 0.049000025, z: 6.4709997}
  m_LocalScale: {x: 1, y: 1, z: 1}
  m_Children: []
  m_Father: {fileID: 578665024}
  m_RootOrder: 6
  m_LocalEulerAnglesHint: {x: -108.857994, y: -90, z: 89.99999}
--- !u!23 &1665895313
MeshRenderer:
  m_ObjectHideFlags: 0
  m_PrefabParentObject: {fileID: 2300000, guid: 7540f4251c32ab2429bd5860349c40ff,
    type: 3}
  m_PrefabInternal: {fileID: 593593373}
  m_GameObject: {fileID: 1665895311}
  m_Enabled: 1
  m_CastShadows: 1
  m_ReceiveShadows: 1
  m_DynamicOccludee: 1
  m_MotionVectors: 1
  m_LightProbeUsage: 1
  m_ReflectionProbeUsage: 1
  m_Materials:
  - {fileID: 2100000, guid: 66f483a7e048c534f88fabe727753605, type: 2}
  m_StaticBatchInfo:
    firstSubMesh: 0
    subMeshCount: 0
  m_StaticBatchRoot: {fileID: 0}
  m_ProbeAnchor: {fileID: 0}
  m_LightProbeVolumeOverride: {fileID: 0}
  m_ScaleInLightmap: 1
  m_PreserveUVs: 0
  m_IgnoreNormalsForChartDetection: 0
  m_ImportantGI: 0
  m_StitchLightmapSeams: 0
  m_SelectedEditorRenderState: 3
  m_MinimumChartSize: 4
  m_AutoUVMaxDistance: 0.5
  m_AutoUVMaxAngle: 89
  m_LightmapParameters: {fileID: 0}
  m_SortingLayerID: 0
  m_SortingLayer: 0
  m_SortingOrder: 0
--- !u!33 &1665895314
MeshFilter:
  m_ObjectHideFlags: 0
  m_PrefabParentObject: {fileID: 3300000, guid: 7540f4251c32ab2429bd5860349c40ff,
    type: 3}
  m_PrefabInternal: {fileID: 593593373}
  m_GameObject: {fileID: 1665895311}
  m_Mesh: {fileID: 4300000, guid: 7540f4251c32ab2429bd5860349c40ff, type: 3}
--- !u!1 &2118011622
GameObject:
  m_ObjectHideFlags: 0
  m_PrefabParentObject: {fileID: 100000, guid: 7540f4251c32ab2429bd5860349c40ff, type: 3}
  m_PrefabInternal: {fileID: 978365397}
  serializedVersion: 5
  m_Component:
  - component: {fileID: 2118011623}
  - component: {fileID: 2118011625}
  - component: {fileID: 2118011624}
  m_Layer: 0
  m_Name: warhead
  m_TagString: Untagged
  m_Icon: {fileID: 0}
  m_NavMeshLayer: 0
  m_StaticEditorFlags: 0
  m_IsActive: 1
--- !u!4 &2118011623
Transform:
  m_ObjectHideFlags: 0
  m_PrefabParentObject: {fileID: 400000, guid: 7540f4251c32ab2429bd5860349c40ff, type: 3}
  m_PrefabInternal: {fileID: 978365397}
  m_GameObject: {fileID: 2118011622}
  m_LocalRotation: {x: -0.7071068, y: -0, z: -0, w: 0.7071068}
  m_LocalPosition: {x: 2.3099995, y: 0.009000063, z: 6.4709997}
  m_LocalScale: {x: 1, y: 1, z: 1}
  m_Children: []
  m_Father: {fileID: 578665024}
  m_RootOrder: 1
  m_LocalEulerAnglesHint: {x: -90, y: 0, z: 0}
--- !u!23 &2118011624
MeshRenderer:
  m_ObjectHideFlags: 0
  m_PrefabParentObject: {fileID: 2300000, guid: 7540f4251c32ab2429bd5860349c40ff,
    type: 3}
  m_PrefabInternal: {fileID: 978365397}
  m_GameObject: {fileID: 2118011622}
  m_Enabled: 1
  m_CastShadows: 1
  m_ReceiveShadows: 1
  m_DynamicOccludee: 1
  m_MotionVectors: 1
  m_LightProbeUsage: 1
  m_ReflectionProbeUsage: 1
  m_Materials:
  - {fileID: 2100000, guid: 66f483a7e048c534f88fabe727753605, type: 2}
  m_StaticBatchInfo:
    firstSubMesh: 0
    subMeshCount: 0
  m_StaticBatchRoot: {fileID: 0}
  m_ProbeAnchor: {fileID: 0}
  m_LightProbeVolumeOverride: {fileID: 0}
  m_ScaleInLightmap: 1
  m_PreserveUVs: 0
  m_IgnoreNormalsForChartDetection: 0
  m_ImportantGI: 0
  m_StitchLightmapSeams: 0
  m_SelectedEditorRenderState: 3
  m_MinimumChartSize: 4
  m_AutoUVMaxDistance: 0.5
  m_AutoUVMaxAngle: 89
  m_LightmapParameters: {fileID: 0}
  m_SortingLayerID: 0
  m_SortingLayer: 0
  m_SortingOrder: 0
--- !u!33 &2118011625
MeshFilter:
  m_ObjectHideFlags: 0
  m_PrefabParentObject: {fileID: 3300000, guid: 7540f4251c32ab2429bd5860349c40ff,
    type: 3}
  m_PrefabInternal: {fileID: 978365397}
  m_GameObject: {fileID: 2118011622}
  m_Mesh: {fileID: 4300000, guid: 7540f4251c32ab2429bd5860349c40ff, type: 3}
--- !u!1001 &2146585230
Prefab:
  m_ObjectHideFlags: 0
  serializedVersion: 2
  m_Modification:
    m_TransformParent: {fileID: 578665024}
    m_Modifications:
    - target: {fileID: 400000, guid: 7540f4251c32ab2429bd5860349c40ff, type: 3}
      propertyPath: m_LocalPosition.x
      value: -2.143999
      objectReference: {fileID: 0}
    - target: {fileID: 400000, guid: 7540f4251c32ab2429bd5860349c40ff, type: 3}
      propertyPath: m_LocalPosition.y
      value: -0.41199994
      objectReference: {fileID: 0}
    - target: {fileID: 400000, guid: 7540f4251c32ab2429bd5860349c40ff, type: 3}
      propertyPath: m_LocalPosition.z
      value: 6.4709997
      objectReference: {fileID: 0}
    - target: {fileID: 400000, guid: 7540f4251c32ab2429bd5860349c40ff, type: 3}
      propertyPath: m_LocalRotation.x
      value: -0.6975538
      objectReference: {fileID: 0}
    - target: {fileID: 400000, guid: 7540f4251c32ab2429bd5860349c40ff, type: 3}
      propertyPath: m_LocalRotation.y
      value: 0.115839206
      objectReference: {fileID: 0}
    - target: {fileID: 400000, guid: 7540f4251c32ab2429bd5860349c40ff, type: 3}
      propertyPath: m_LocalRotation.z
      value: -0.115839206
      objectReference: {fileID: 0}
    - target: {fileID: 400000, guid: 7540f4251c32ab2429bd5860349c40ff, type: 3}
      propertyPath: m_LocalRotation.w
      value: 0.6975538
      objectReference: {fileID: 0}
    - target: {fileID: 400000, guid: 7540f4251c32ab2429bd5860349c40ff, type: 3}
      propertyPath: m_RootOrder
      value: 5
      objectReference: {fileID: 0}
    - target: {fileID: 400000, guid: 7540f4251c32ab2429bd5860349c40ff, type: 3}
      propertyPath: m_LocalEulerAnglesHint.y
      value: -90
      objectReference: {fileID: 0}
    - target: {fileID: 400000, guid: 7540f4251c32ab2429bd5860349c40ff, type: 3}
      propertyPath: m_LocalEulerAnglesHint.x
      value: -108.857994
      objectReference: {fileID: 0}
    - target: {fileID: 100000, guid: 7540f4251c32ab2429bd5860349c40ff, type: 3}
      propertyPath: m_Name
      value: warhead (2)
      objectReference: {fileID: 0}
    - target: {fileID: 400000, guid: 7540f4251c32ab2429bd5860349c40ff, type: 3}
      propertyPath: m_LocalEulerAnglesHint.z
      value: 89.99999
      objectReference: {fileID: 0}
    - target: {fileID: 400000, guid: 7540f4251c32ab2429bd5860349c40ff, type: 3}
      propertyPath: m_LocalScale.y
      value: 1
      objectReference: {fileID: 0}
    - target: {fileID: 400000, guid: 7540f4251c32ab2429bd5860349c40ff, type: 3}
      propertyPath: m_LocalScale.z
      value: 1
      objectReference: {fileID: 0}
    m_RemovedComponents: []
  m_ParentPrefab: {fileID: 100100000, guid: 7540f4251c32ab2429bd5860349c40ff, type: 3}
  m_RootGameObject: {fileID: 57345964}
  m_IsPrefabParent: 0
